[2024-06-16T13:26:35.439+0000] {local_task_job_runner.py:120} INFO - ::group::Pre task execution logs
[2024-06-16T13:26:35.480+0000] {taskinstance.py:2076} INFO - Dependencies all met for dep_context=non-requeueable deps ti=<TaskInstance: extract_load_dag_x15.extract_employee_territories manual__2024-06-16T13:26:28.439722+00:00 [queued]>
[2024-06-16T13:26:35.493+0000] {taskinstance.py:2076} INFO - Dependencies all met for dep_context=requeueable deps ti=<TaskInstance: extract_load_dag_x15.extract_employee_territories manual__2024-06-16T13:26:28.439722+00:00 [queued]>
[2024-06-16T13:26:35.494+0000] {taskinstance.py:2306} INFO - Starting attempt 1 of 1
[2024-06-16T13:26:35.516+0000] {taskinstance.py:2330} INFO - Executing <Task(PythonOperator): extract_employee_territories> on 2024-06-16 13:26:28.439722+00:00
[2024-06-16T13:26:35.549+0000] {warnings.py:112} WARNING - /home/***/.local/lib/python3.12/site-packages/***/task/task_runner/standard_task_runner.py:61: DeprecationWarning: This process (pid=9595) is multi-threaded, use of fork() may lead to deadlocks in the child.
  pid = os.fork()

[2024-06-16T13:26:35.555+0000] {standard_task_runner.py:63} INFO - Started process 9611 to run task
[2024-06-16T13:26:35.554+0000] {standard_task_runner.py:90} INFO - Running: ['***', 'tasks', 'run', 'extract_load_dag_x15', 'extract_employee_territories', 'manual__2024-06-16T13:26:28.439722+00:00', '--job-id', '373', '--raw', '--subdir', 'DAGS_FOLDER/dag_bigquery.py', '--cfg-path', '/tmp/tmpd14xyka6']
[2024-06-16T13:26:35.559+0000] {standard_task_runner.py:91} INFO - Job 373: Subtask extract_employee_territories
[2024-06-16T13:26:35.829+0000] {task_command.py:426} INFO - Running <TaskInstance: extract_load_dag_x15.extract_employee_territories manual__2024-06-16T13:26:28.439722+00:00 [running]> on host 935fe69a44b7
[2024-06-16T13:26:36.089+0000] {taskinstance.py:2648} INFO - Exporting env vars: AIRFLOW_CTX_DAG_OWNER='***' AIRFLOW_CTX_DAG_ID='extract_load_dag_x15' AIRFLOW_CTX_TASK_ID='extract_employee_territories' AIRFLOW_CTX_EXECUTION_DATE='2024-06-16T13:26:28.439722+00:00' AIRFLOW_CTX_TRY_NUMBER='1' AIRFLOW_CTX_DAG_RUN_ID='manual__2024-06-16T13:26:28.439722+00:00'
[2024-06-16T13:26:36.093+0000] {taskinstance.py:430} INFO - ::endgroup::
[2024-06-16T13:26:36.130+0000] {base.py:84} INFO - Using connection ID 'postgres_conn' for task execution.
[2024-06-16T13:26:36.435+0000] {python.py:237} INFO - Done. Returned value was: None
[2024-06-16T13:26:36.440+0000] {taskinstance.py:441} INFO - ::group::Post task execution logs
[2024-06-16T13:26:36.466+0000] {taskinstance.py:1206} INFO - Marking task as SUCCESS. dag_id=extract_load_dag_x15, task_id=extract_employee_territories, run_id=manual__2024-06-16T13:26:28.439722+00:00, execution_date=20240616T132628, start_date=20240616T132635, end_date=20240616T132636
[2024-06-16T13:26:36.529+0000] {local_task_job_runner.py:240} INFO - Task exited with return code 0
[2024-06-16T13:26:36.551+0000] {local_task_job_runner.py:222} INFO - ::endgroup::
