[2024-06-16T03:43:21.766+0000] {local_task_job_runner.py:120} INFO - ::group::Pre task execution logs
[2024-06-16T03:43:21.783+0000] {taskinstance.py:2076} INFO - Dependencies all met for dep_context=non-requeueable deps ti=<TaskInstance: postgres_to_bigquery_x9.load_employee_territories_to_bigquery scheduled__2024-06-15T00:00:00+00:00 [queued]>
[2024-06-16T03:43:21.798+0000] {taskinstance.py:2076} INFO - Dependencies all met for dep_context=requeueable deps ti=<TaskInstance: postgres_to_bigquery_x9.load_employee_territories_to_bigquery scheduled__2024-06-15T00:00:00+00:00 [queued]>
[2024-06-16T03:43:21.805+0000] {taskinstance.py:2306} INFO - Starting attempt 1 of 2
[2024-06-16T03:43:21.836+0000] {taskinstance.py:2330} INFO - Executing <Task(PythonOperator): load_employee_territories_to_bigquery> on 2024-06-15 00:00:00+00:00
[2024-06-16T03:43:21.847+0000] {warnings.py:112} WARNING - /home/***/.local/lib/python3.12/site-packages/***/task/task_runner/standard_task_runner.py:61: DeprecationWarning: This process (pid=1496) is multi-threaded, use of fork() may lead to deadlocks in the child.
  pid = os.fork()

[2024-06-16T03:43:21.853+0000] {standard_task_runner.py:63} INFO - Started process 1519 to run task
[2024-06-16T03:43:21.851+0000] {standard_task_runner.py:90} INFO - Running: ['***', 'tasks', 'run', 'postgres_to_bigquery_x9', 'load_employee_territories_to_bigquery', 'scheduled__2024-06-15T00:00:00+00:00', '--job-id', '111', '--raw', '--subdir', 'DAGS_FOLDER/dag_bigquery.py', '--cfg-path', '/tmp/tmpeu8_jska']
[2024-06-16T03:43:21.860+0000] {standard_task_runner.py:91} INFO - Job 111: Subtask load_employee_territories_to_bigquery
[2024-06-16T03:43:21.945+0000] {task_command.py:426} INFO - Running <TaskInstance: postgres_to_bigquery_x9.load_employee_territories_to_bigquery scheduled__2024-06-15T00:00:00+00:00 [running]> on host 935fe69a44b7
[2024-06-16T03:43:22.028+0000] {taskinstance.py:2648} INFO - Exporting env vars: AIRFLOW_CTX_DAG_OWNER='***' AIRFLOW_CTX_DAG_ID='postgres_to_bigquery_x9' AIRFLOW_CTX_TASK_ID='load_employee_territories_to_bigquery' AIRFLOW_CTX_EXECUTION_DATE='2024-06-15T00:00:00+00:00' AIRFLOW_CTX_TRY_NUMBER='1' AIRFLOW_CTX_DAG_RUN_ID='scheduled__2024-06-15T00:00:00+00:00'
[2024-06-16T03:43:22.030+0000] {taskinstance.py:430} INFO - ::endgroup::
[2024-06-16T03:43:22.082+0000] {taskinstance.py:441} INFO - ::group::Post task execution logs
[2024-06-16T03:43:22.096+0000] {taskinstance.py:2905} ERROR - Task failed with exception
Traceback (most recent call last):
  File "/home/airflow/.local/lib/python3.12/site-packages/airflow/models/taskinstance.py", line 465, in _execute_task
    result = _execute_callable(context=context, **execute_callable_kwargs)
             ^^^^^^^^^^^^^^^^^^^^^^^^^^^^^^^^^^^^^^^^^^^^^^^^^^^^^^^^^^^^^
  File "/home/airflow/.local/lib/python3.12/site-packages/airflow/models/taskinstance.py", line 432, in _execute_callable
    return execute_callable(context=context, **execute_callable_kwargs)
           ^^^^^^^^^^^^^^^^^^^^^^^^^^^^^^^^^^^^^^^^^^^^^^^^^^^^^^^^^^^^
  File "/home/airflow/.local/lib/python3.12/site-packages/airflow/models/baseoperator.py", line 401, in wrapper
    return func(self, *args, **kwargs)
           ^^^^^^^^^^^^^^^^^^^^^^^^^^^
  File "/home/airflow/.local/lib/python3.12/site-packages/airflow/operators/python.py", line 235, in execute
    return_value = self.execute_callable()
                   ^^^^^^^^^^^^^^^^^^^^^^^
  File "/home/airflow/.local/lib/python3.12/site-packages/airflow/operators/python.py", line 252, in execute_callable
    return self.python_callable(*self.op_args, **self.op_kwargs)
           ^^^^^^^^^^^^^^^^^^^^^^^^^^^^^^^^^^^^^^^^^^^^^^^^^^^^^
  File "/opt/airflow/dags/dag_bigquery.py", line 93, in create_bigquery_external_table
    bq_external_table = BigQueryCreateExternalTableOperator(
                        ^^^^^^^^^^^^^^^^^^^^^^^^^^^^^^^^^^^^
  File "/home/airflow/.local/lib/python3.12/site-packages/airflow/models/baseoperator.py", line 485, in apply_defaults
    result = func(self, **kwargs, default_args=default_args)
             ^^^^^^^^^^^^^^^^^^^^^^^^^^^^^^^^^^^^^^^^^^^^^^^
  File "/home/airflow/.local/lib/python3.12/site-packages/airflow/providers/google/cloud/operators/bigquery.py", line 1738, in __init__
    super().__init__(**kwargs)
  File "/home/airflow/.local/lib/python3.12/site-packages/airflow/models/baseoperator.py", line 485, in apply_defaults
    result = func(self, **kwargs, default_args=default_args)
             ^^^^^^^^^^^^^^^^^^^^^^^^^^^^^^^^^^^^^^^^^^^^^^^
  File "/home/airflow/.local/lib/python3.12/site-packages/airflow/models/baseoperator.py", line 485, in apply_defaults
    result = func(self, **kwargs, default_args=default_args)
             ^^^^^^^^^^^^^^^^^^^^^^^^^^^^^^^^^^^^^^^^^^^^^^^
  File "/home/airflow/.local/lib/python3.12/site-packages/airflow/models/baseoperator.py", line 882, in __init__
    raise AirflowException(
airflow.exceptions.AirflowException: Invalid arguments were passed to BigQueryCreateExternalTableOperator (task_id: create_external_table_employee_territories). Invalid arguments were:
**kwargs: {'source_uris': ['gs://ds_sklola_bucket/employee_territories.json']}
[2024-06-16T03:43:22.110+0000] {taskinstance.py:1206} INFO - Marking task as UP_FOR_RETRY. dag_id=postgres_to_bigquery_x9, task_id=load_employee_territories_to_bigquery, run_id=scheduled__2024-06-15T00:00:00+00:00, execution_date=20240615T000000, start_date=20240616T034321, end_date=20240616T034322
[2024-06-16T03:43:22.147+0000] {standard_task_runner.py:110} ERROR - Failed to execute job 111 for task load_employee_territories_to_bigquery (Invalid arguments were passed to BigQueryCreateExternalTableOperator (task_id: create_external_table_employee_territories). Invalid arguments were:
**kwargs: {'source_uris': ['gs://ds_sklola_bucket/employee_territories.json']}; 1519)
[2024-06-16T03:43:22.174+0000] {local_task_job_runner.py:240} INFO - Task exited with return code 1
[2024-06-16T03:43:22.188+0000] {local_task_job_runner.py:222} INFO - ::endgroup::
